%YAML 1.1
%TAG !u! tag:unity3d.com,2011:
--- !u!114 &11400000
MonoBehaviour:
  m_ObjectHideFlags: 0
  m_CorrespondingSourceObject: {fileID: 0}
  m_PrefabInternal: {fileID: 0}
  m_GameObject: {fileID: 0}
  m_Enabled: 1
  m_EditorHideFlags: 0
  m_Script: {fileID: 11500000, guid: 4b680759d89e70448b1b790d483c2a54, type: 3}
  m_Name: Vertical
  m_EditorClassIdentifier: 
  mode: 0
  allowedAxis:
  - {fileID: 11400000, guid: 0b44022f87d0b1a49a5c05da9d57ecc3, type: 2}
