%YAML 1.1
%TAG !u! tag:unity3d.com,2011:
--- !u!114 &11400000
MonoBehaviour:
  m_ObjectHideFlags: 0
  m_CorrespondingSourceObject: {fileID: 0}
  m_PrefabInternal: {fileID: 0}
  m_GameObject: {fileID: 0}
  m_Enabled: 1
  m_EditorHideFlags: 0
  m_Script: {fileID: 11500000, guid: 19bb2476c24974c45be2ea1da31f3f75, type: 3}
  m_Name: Submit_PC
  m_EditorClassIdentifier: 
  icon: {fileID: 0}
  controllerType: 0
  pc_butons: 1
  xbox_buttons: 0
  play_buttons: 0
  switch_buttons: 0
  mouse_buttons: 0
  keyCode: 32
