%YAML 1.1
%TAG !u! tag:unity3d.com,2011:
--- !u!114 &11400000
MonoBehaviour:
  m_ObjectHideFlags: 0
  m_CorrespondingSourceObject: {fileID: 0}
  m_PrefabInternal: {fileID: 0}
  m_GameObject: {fileID: 0}
  m_Enabled: 1
  m_EditorHideFlags: 0
  m_Script: {fileID: 11500000, guid: f09b9af07352e724d98548ddb358e808, type: 3}
  m_Name: Horizontal_PC
  m_EditorClassIdentifier: 
  sprites:
  - {fileID: 21300000, guid: 053cf588d4bdc204ab38ab1c033b2b03, type: 3}
  - {fileID: 21300002, guid: 053cf588d4bdc204ab38ab1c033b2b03, type: 3}
  speed: 0.5
